module gitlab.com/popsulfr/qbtpathrenamer

go 1.14

require (
	github.com/adrg/xdg v0.2.1
	github.com/davecgh/go-spew v1.1.1 // indirect
	github.com/kr/text v0.2.0 // indirect
	github.com/niemeyer/pretty v0.0.0-20200227124842-a10e7caefd8e // indirect
	github.com/stretchr/testify v1.6.1 // indirect
	github.com/zeebo/bencode v1.0.0
	gopkg.in/check.v1 v1.0.0-20200227125254-8fa46927fb4f // indirect
	gopkg.in/yaml.v3 v3.0.0-20200605160147-a5ece683394c // indirect
)
